Logical_circuits/register/simulation/qsim/lab0.msim.vcd
$comment
	File created using the following command:
		vcd file lab0.msim.vcd -direction
$end
$date
	Wed Sep 11 15:36:42 2024
$end
$version
	ModelSim Version 10.5b
$end
$timescale
	1ps
$end

$scope module lab0_vlg_vec_tst $end
$var reg 1 ! clk $end
$var reg 8 " D [7:0] $end
$var wire 1 # Q [7] $end
$var wire 1 $ Q [6] $end
$var wire 1 % Q [5] $end
$var wire 1 & Q [4] $end
$var wire 1 ' Q [3] $end
$var wire 1 ( Q [2] $end
$var wire 1 ) Q [1] $end
$var wire 1 * Q [0] $end

$scope module i1 $end
$var wire 1 + gnd $end
$var wire 1 , vcc $end
$var wire 1 - unknown $end
$var tri1 1 . devclrn $end
$var tri1 1 / devpor $end
$var tri1 1 0 devoe $end
$var wire 1 1 Q[7]~output_o $end
$var wire 1 2 Q[6]~output_o $end
$var wire 1 3 Q[5]~output_o $end
$var wire 1 4 Q[4]~output_o $end
$var wire 1 5 Q[3]~output_o $end
$var wire 1 6 Q[2]~output_o $end
$var wire 1 7 Q[1]~output_o $end
$var wire 1 8 Q[0]~output_o $end
$var wire 1 9 clk~input_o $end
$var wire 1 : clk~inputclkctrl_outclk $end
$var wire 1 ; D[7]~input_o $end
$var wire 1 < inst|12~q $end
$var wire 1 = D[6]~input_o $end
$var wire 1 > inst|13~q $end
$var wire 1 ? D[5]~input_o $end
$var wire 1 @ inst|14~q $end
$var wire 1 A D[4]~input_o $end
$var wire 1 B inst|15~q $end
$var wire 1 C D[3]~input_o $end
$var wire 1 D inst|16~feeder_combout $end
$var wire 1 E inst|16~q $end
$var wire 1 F D[2]~input_o $end
$var wire 1 G inst|17~feeder_combout $end
$var wire 1 H inst|17~q $end
$var wire 1 I D[1]~input_o $end
$var wire 1 J inst|18~q $end
$var wire 1 K D[0]~input_o $end
$var wire 1 L inst|19~feeder_combout $end
$var wire 1 M inst|19~q $end
$upscope $end
$upscope $end
$enddefinitions $end
#0
$dumpvars
0!
b11 "
0*
0)
0(
0'
0&
0%
0$
0#
0+
1,
x-
1.
1/
10
01
02
03
04
05
06
07
08
09
0:
0;
0<
0=
0>
0?
0@
0A
0B
0C
0D
0E
0F
0G
0H
1I
0J
1K
1L
0M
$end
#25000
1!
19
1:
1M
1J
17
18
1*
1)
#50000
0!
09
0:
#75000
1!
19
1:
#100000
0!
09
0:
#125000
1!
19
1:
#150000
0!
09
0:
#175000
1!
19
1:
#200000
0!
09
0:
#225000
1!
19
1:
#250000
0!
09
0:
#275000
1!
19
1:
#300000
0!
09
0:
#325000
1!
19
1:
#350000
0!
09
0:
#375000
1!
19
1:
#400000
0!
09
0:
#425000
1!
19
1:
#450000
0!
09
0:
#475000
1!
19
1:
#500000
b1 "
b0 "
0!
0K
0I
09
0:
0L
#525000
1!
19
1:
0M
0J
07
08
0*
0)
#550000
0!
09
0:
#575000
1!
19
1:
#600000
0!
09
0:
#625000
1!
19
1:
#650000
0!
09
0:
#675000
1!
19
1:
#700000
0!
09
0:
#725000
1!
19
1:
#750000
0!
09
0:
#775000
1!
19
1:
#800000
0!
09
0:
#825000
1!
19
1:
#850000
0!
09
0:
#875000
1!
19
1:
#900000
0!
09
0:
#925000
1!
19
1:
#950000
0!
09
0:
#975000
1!
19
1:
