Computer_components/ALU/9.25/simulation/qsim/Block1.msim.vcd
$comment
	File created using the following command:
		vcd file Block1.msim.vcd -direction
$end
$date
	Wed Sep 25 14:25:42 2024
$end
$version
	ModelSim Version 10.5b
$end
$timescale
	1ps
$end

$scope module Block1_vlg_vec_tst $end
$var reg 8 ! A [7:0] $end
$var reg 8 " B [7:0] $end
$var reg 1 # CN $end
$var reg 1 $ M $end
$var reg 4 % S [3:0] $end
$var wire 1 & AEQB $end
$var wire 1 ' CN4 $end
$var wire 1 ( F [7] $end
$var wire 1 ) F [6] $end
$var wire 1 * F [5] $end
$var wire 1 + F [4] $end
$var wire 1 , F [3] $end
$var wire 1 - F [2] $end
$var wire 1 . F [1] $end
$var wire 1 / F [0] $end

$scope module i1 $end
$var wire 1 0 gnd $end
$var wire 1 1 vcc $end
$var wire 1 2 unknown $end
$var tri1 1 3 devclrn $end
$var tri1 1 4 devpor $end
$var tri1 1 5 devoe $end
$var wire 1 6 AEQB~output_o $end
$var wire 1 7 CN4~output_o $end
$var wire 1 8 F[7]~output_o $end
$var wire 1 9 F[6]~output_o $end
$var wire 1 : F[5]~output_o $end
$var wire 1 ; F[4]~output_o $end
$var wire 1 < F[3]~output_o $end
$var wire 1 = F[2]~output_o $end
$var wire 1 > F[1]~output_o $end
$var wire 1 ? F[0]~output_o $end
$var wire 1 @ M~input_o $end
$var wire 1 A A[7]~input_o $end
$var wire 1 B B[7]~input_o $end
$var wire 1 C S[0]~input_o $end
$var wire 1 D S[1]~input_o $end
$var wire 1 E inst|51~0_combout $end
$var wire 1 F A[6]~input_o $end
$var wire 1 G B[6]~input_o $end
$var wire 1 H inst|45~0_combout $end
$var wire 1 I B[5]~input_o $end
$var wire 1 J A[5]~input_o $end
$var wire 1 K inst|44~0_combout $end
$var wire 1 L B[4]~input_o $end
$var wire 1 M A[4]~input_o $end
$var wire 1 N inst|43~0_combout $end
$var wire 1 O S[3]~input_o $end
$var wire 1 P S[2]~input_o $end
$var wire 1 Q inst|46~0_combout $end
$var wire 1 R inst|47~0_combout $end
$var wire 1 S inst|77~0_combout $end
$var wire 1 T A[2]~input_o $end
$var wire 1 U B[2]~input_o $end
$var wire 1 V inst1|45~0_combout $end
$var wire 1 W B[1]~input_o $end
$var wire 1 X A[1]~input_o $end
$var wire 1 Y inst1|44~0_combout $end
$var wire 1 Z A[3]~input_o $end
$var wire 1 [ B[3]~input_o $end
$var wire 1 \ inst1|52~0_combout $end
$var wire 1 ] inst1|48~0_combout $end
$var wire 1 ^ A[0]~input_o $end
$var wire 1 _ B[0]~input_o $end
$var wire 1 ` inst1|43~0_combout $end
$var wire 1 a inst1|46~0_combout $end
$var wire 1 b CN~input_o $end
$var wire 1 c inst1|47~0_combout $end
$var wire 1 d inst1|78~0_combout $end
$var wire 1 e inst1|78~2_combout $end
$var wire 1 f inst1|51~0_combout $end
$var wire 1 g inst1|78~3_combout $end
$var wire 1 h inst|77~1_combout $end
$var wire 1 i inst|48~0_combout $end
$var wire 1 j inst|77~2_combout $end
$var wire 1 k inst|52~0_combout $end
$var wire 1 l inst|77~3_combout $end
$var wire 1 m inst1|78~1_combout $end
$var wire 1 n inst1|77~0_combout $end
$var wire 1 o inst1|77~1_combout $end
$var wire 1 p inst1|79~combout $end
$var wire 1 q inst1|81~combout $end
$var wire 1 r inst1|82~0_combout $end
$var wire 1 s inst1|80~0_combout $end
$var wire 1 t inst1|83~0_combout $end
$var wire 1 u inst|80~combout $end
$var wire 1 v inst|79~combout $end
$var wire 1 w inst|81~combout $end
$var wire 1 x inst|82~0_combout $end
$var wire 1 y inst|83~0_combout $end
$var wire 1 z inst2~combout $end
$var wire 1 { inst|78~0_combout $end
$upscope $end
$upscope $end
$enddefinitions $end
#0
$dumpvars
b1 !
b11 "
0#
0$
b0 %
0&
1'
0/
1.
0-
0,
0+
0*
0)
0(
00
11
x2
13
14
15
06
17
08
09
0:
0;
0<
0=
1>
0?
0@
0A
0B
0C
0D
0E
0F
0G
0H
0I
0J
0K
0L
0M
0N
0O
0P
0Q
0R
0S
0T
0U
0V
1W
0X
0Y
0Z
0[
0\
0]
1^
1_
1`
0a
0b
0c
0d
1e
0f
1g
0h
0i
0j
0k
0l
1m
0n
0o
0p
0q
0r
1s
0t
1u
1v
1w
0x
0y
0z
1{
$end
#15625
b1 %
1C
1Y
1q
0m
0e
0>
0.
1r
1=
1-
#31250
b11 %
b10 %
0C
1D
1f
0Y
1V
1N
1K
1H
1E
0g
0q
1m
1e
1n
0u
0w
1o
0r
1x
1l
18
19
0=
1<
1:
1;
1>
0v
1u
1h
0n
1g
1y
1.
1+
1*
1,
0-
1)
1(
1r
0o
0<
1=
0;
1w
0y
1j
1v
0u
0h
0+
1-
0,
0x
1o
1z
16
1<
09
1;
0:
0w
0j
0*
1+
0)
1,
1&
0z
0{
0l
1x
19
08
07
06
1:
1y
1*
0&
0'
0(
1)
1{
1l
18
17
1'
1(
1z
16
1&
#46875
b11 %
1C
1Y
1q
0m
0e
0>
1n
0g
0.
0r
0=
0v
1u
1h
0-
0o
0<
0;
1w
0y
1j
0+
0,
0x
09
0:
0*
0)
0z
0{
0l
08
07
06
0&
0'
0(
#62500
b111 %
b101 %
b100 %
0C
0D
1P
0f
0Y
0V
0N
0K
0H
0E
1g
0q
1m
1e
0n
1v
0u
0h
0w
0j
1o
1r
1x
1{
1l
18
17
19
1=
1<
1:
1;
1>
1u
1w
1y
1.
1+
1*
1,
1-
1)
1'
1(
0r
0o
0x
0l
08
09
0<
0=
0:
0;
0y
0+
0*
0-
0,
0)
0(
#78125
b101 %
1C
1Y
1q
0m
0e
0>
0.
1r
1=
1-
#93750
b111 %
b110 %
0C
1D
1f
0Y
1V
1N
1K
1H
1E
0g
0q
1m
1e
1n
0u
0w
1o
0r
1x
1l
18
19
0=
1<
1:
1;
1>
0v
1u
1h
0n
1g
1y
1.
1+
1*
1,
0-
1)
1(
1r
0o
0<
1=
0;
1w
0y
1j
1v
0u
0h
0+
1-
0,
0x
1o
1z
16
1<
09
1;
0:
0w
0j
0*
1+
0)
1,
1&
0z
0{
0l
1x
19
08
07
06
1:
1y
1*
0&
0'
0(
1)
1{
1l
18
17
1'
1(
1z
16
1&
#109375
b111 %
1C
1Y
1q
0m
0e
0>
1n
0g
0.
0r
0=
0v
1u
1h
0-
0o
0<
0;
1w
0y
1j
0+
0,
0x
09
0:
0*
0)
0z
0{
0l
08
07
06
0&
0'
0(
#125000
b1111 %
b1011 %
b1001 %
b1000 %
0C
0D
0P
1O
0f
0Y
0V
0N
0K
0H
0E
1a
1g
0q
1m
1e
0n
1v
0u
0h
0w
0j
0s
1o
1r
1x
1{
1l
18
17
19
1=
1<
1?
1:
1;
1>
1u
1t
1w
1y
1.
1+
1*
1/
1,
1-
1)
1'
1(
0r
0o
0x
0l
08
09
0<
0=
0:
0;
0y
0t
0+
0*
0-
0,
0)
0(
1z
16
1&
0z
06
0&
#140625
b1001 %
1C
1Y
1q
0m
0e
0>
0.
1r
1=
1-
#156250
b1011 %
b1010 %
0C
1D
1f
0Y
1V
1N
1K
1H
1E
0g
0q
1m
1e
1n
0u
0w
1o
0r
1x
1l
18
19
0=
1<
1:
1;
1>
0v
1u
1h
0n
1g
1y
1.
1+
1*
1,
0-
1)
1(
1r
0o
0<
1=
0;
1w
0y
1j
1v
0u
0h
0+
1-
0,
0x
1o
1z
16
1<
09
1;
0:
0w
0j
1t
0*
1+
0)
1,
1&
0z
0{
0l
1x
19
08
07
06
1:
1y
1*
0&
0'
0(
1)
1{
1l
1z
16
18
17
1'
1(
1&
#171875
b1011 %
1C
1Y
1q
0m
0e
0>
0t
1n
0g
0.
0r
0=
0v
1u
1h
0-
0o
0<
0;
1w
0y
1j
0+
0,
0x
09
0:
0*
0)
0z
0{
0l
08
07
06
0&
0'
0(
#187500
b1111 %
b1101 %
b1100 %
0C
0D
1P
0f
0Y
0V
0N
0K
0H
0E
1g
0q
1m
1e
0n
1v
0u
0h
0w
0j
1o
1r
1x
1{
1l
18
17
19
1=
1<
1:
1;
1>
1u
1t
1w
1y
1.
1+
1*
1,
1-
1)
1'
1(
0r
0o
0x
0l
08
09
0<
0=
0:
0;
0y
0t
0+
0*
0-
0,
0)
0(
1z
16
1&
0z
06
0&
#203125
b1101 %
1C
1Y
1q
0m
0e
0>
0.
1r
1=
1-
#218750
b1111 %
b1110 %
0C
1D
1f
0Y
1V
1N
1K
1H
1E
0g
0q
1m
1e
1n
0u
0w
1o
0r
1x
1l
18
19
0=
1<
1:
1;
1>
0v
1u
1h
0n
1g
1y
1.
1+
1*
1,
0-
1)
1(
1r
0o
0<
1=
0;
1w
0y
1j
1v
0u
0h
0+
1-
0,
0x
1o
1z
16
1<
09
1;
0:
0w
0j
1t
0*
1+
0)
1,
1&
0z
0{
0l
1x
19
08
07
06
1:
1y
1*
0&
0'
0(
1)
1{
1l
1z
16
18
17
1'
1(
1&
#234375
b1111 %
1C
1Y
1q
0m
0e
0>
0t
1n
0g
0.
0r
0=
0v
1u
1h
0-
0o
0<
0;
1w
0y
1j
0+
0,
0x
09
0:
0*
0)
0z
0{
0l
08
07
06
0&
0'
0(
#250000
1#
b111 %
b11 %
b1 %
b0 %
1b
0C
0D
0P
0O
1s
0f
0Y
0V
0N
0K
0H
0E
0a
0?
1g
0q
1m
1e
0n
1v
0u
0h
0w
0j
0s
1p
1d
0/
1o
1r
1x
1{
1l
18
17
19
1=
1<
1?
1:
1;
1>
1u
1t
1w
1y
1q
1.
1+
1*
1/
1,
1-
1)
1'
1(
0r
0o
0x
0l
08
09
0<
0=
0>
0:
0;
0y
0t
0+
0*
0.
0-
0,
0)
0(
1z
16
1&
0z
06
0&
#265625
b1 %
1C
1Y
0q
1>
1.
#281250
b11 %
b10 %
0C
1D
1f
0Y
1V
1N
1K
1H
1E
1q
0u
0w
1o
1r
1x
1l
18
19
1=
1<
1:
1;
0>
1y
0.
1+
1*
1,
1-
1)
1(
1z
16
1&
#296875
b11 %
1C
1Y
0q
1>
1t
1.
#312500
b111 %
b101 %
b100 %
0C
0D
1P
0f
0Y
0V
0N
0K
0H
0E
1q
1u
1w
0o
0r
0x
0l
08
09
0=
0<
0:
0;
0>
0t
0y
0.
0+
0*
0,
0-
0)
0(
0z
06
0&
#328125
b101 %
1C
1Y
0q
1>
1.
#343750
b111 %
b110 %
0C
1D
1f
0Y
1V
1N
1K
1H
1E
1q
0u
0w
1o
1r
1x
1l
18
19
1=
1<
1:
1;
0>
1y
0.
1+
1*
1,
1-
1)
1(
1z
16
1&
#359375
b111 %
1C
1Y
0q
1>
1t
1.
#375000
b1111 %
b1011 %
b1001 %
b1000 %
0C
0D
0P
1O
0f
0Y
0V
0N
0K
0H
0E
1a
1q
1u
1w
1s
0p
0d
0o
0r
0x
0l
08
09
0=
0<
0?
0:
0;
0>
0t
0y
0q
0.
0+
0*
0/
0,
0-
0)
0(
1>
1.
0z
06
0&
#390625
b1001 %
1C
1Y
1q
0m
0e
0>
0.
1r
1=
1-
#406250
b1011 %
b1010 %
0C
1D
1f
0Y
1V
1N
1K
1H
1E
0g
0q
1m
1e
1n
0u
0w
1o
0r
1x
1l
18
19
0=
1<
1:
1;
1>
0v
1u
1h
0n
1g
1y
1.
1+
1*
1,
0-
1)
1(
1r
0o
0<
1=
0;
1w
0y
1j
1v
0u
0h
0+
1-
0,
0x
1o
1z
16
1<
09
1;
0:
0w
0j
0*
1+
0)
1,
1&
0z
0{
0l
1x
19
08
07
06
1:
1y
1*
0&
0'
0(
1)
1{
1l
18
17
1'
1(
1z
16
1&
#421875
b1011 %
1C
1Y
1q
0m
0e
0>
1n
0g
0.
0r
0=
0v
1u
1h
0-
0o
0<
0;
1w
0y
1j
0+
0,
0x
09
0:
0*
0)
0z
0{
0l
08
07
06
0&
0'
0(
#437500
b1111 %
b1101 %
b1100 %
0C
0D
1P
0f
0Y
0V
0N
0K
0H
0E
1g
0q
1m
1e
0n
1v
0u
0h
0w
0j
1o
1r
1x
1{
1l
18
17
19
1=
1<
1:
1;
1>
1u
1w
1y
1.
1+
1*
1,
1-
1)
1'
1(
0r
0o
0x
0l
08
09
0<
0=
0:
0;
0y
0+
0*
0-
0,
0)
0(
#453125
b1101 %
1C
1Y
1q
0m
0e
0>
0.
1r
1=
1-
#468750
b1111 %
b1110 %
0C
1D
1f
0Y
1V
1N
1K
1H
1E
0g
0q
1m
1e
1n
0u
0w
1o
0r
1x
1l
18
19
0=
1<
1:
1;
1>
0v
1u
1h
0n
1g
1y
1.
1+
1*
1,
0-
1)
1(
1r
0o
0<
1=
0;
1w
0y
1j
1v
0u
0h
0+
1-
0,
0x
1o
1z
16
1<
09
1;
0:
0w
0j
0*
1+
0)
1,
1&
0z
0{
0l
1x
19
08
07
06
1:
1y
1*
0&
0'
0(
1)
1{
1l
18
17
1'
1(
1z
16
1&
#484375
b1111 %
1C
1Y
1q
0m
0e
0>
1n
0g
0.
0r
0=
0v
1u
1h
0-
0o
0<
0;
1w
0y
1j
0+
0,
0x
09
0:
0*
0)
0z
0{
0l
08
07
06
0&
0'
0(
#500000
1$
0#
b111 %
b11 %
b1 %
b0 %
1@
0b
0C
0D
0P
0O
0s
0f
0Y
0V
0N
0K
0H
0E
0a
1?
1g
0q
1m
1e
0u
0h
0w
0j
1s
1/
1o
1r
1x
1{
1l
18
17
19
1=
1<
0?
1:
1;
1>
1y
1.
1+
1*
0/
1,
1-
1)
1'
1(
1z
16
1&
#515625
b1 %
1C
1Y
1q
0m
0e
0>
0.
#531250
b11 %
b10 %
0C
1D
1f
0Y
1V
1N
1K
1H
1E
0g
0q
1m
1e
1u
1w
0o
0r
0x
0l
08
09
0=
0<
0:
0;
1>
1h
1g
0y
1.
0+
0*
0,
0-
0)
0(
0z
06
1j
0h
0&
0j
0{
07
0'
1{
17
1'
#546875
b11 %
1C
1Y
1q
0m
0e
0>
0g
0.
1h
1j
0{
07
0'
#562500
b111 %
b101 %
b100 %
0C
0D
1P
0f
0Y
0V
0N
0K
0H
0E
1g
0q
1m
1e
0u
0h
0w
0j
1o
1r
1x
1{
1l
18
17
19
1=
1<
1:
1;
1>
1y
1.
1+
1*
1,
1-
1)
1'
1(
1z
16
1&
#578125
b101 %
1C
1Y
1q
0m
0e
0>
0.
#593750
b111 %
b110 %
0C
1D
1f
0Y
1V
1N
1K
1H
1E
0g
0q
1m
1e
1u
1w
0o
0r
0x
0l
08
09
0=
0<
0:
0;
1>
1h
1g
0y
1.
0+
0*
0,
0-
0)
0(
0z
06
1j
0h
0&
0j
0{
07
0'
1{
17
1'
#609375
b111 %
1C
1Y
1q
0m
0e
0>
0g
0.
1h
1j
0{
07
0'
#625000
b1111 %
b1011 %
b1001 %
b1000 %
0C
0D
0P
1O
0f
0Y
0V
0N
0K
0H
0E
1a
1g
0q
1m
1e
0u
0h
0w
0j
0s
1o
1r
1x
1{
1l
18
17
19
1=
1<
1?
1:
1;
1>
1t
1y
1.
1+
1*
1/
1,
1-
1)
1'
1(
1z
16
1&
#640625
b1001 %
1C
1Y
1q
0m
0e
0>
0t
0.
#656250
b1011 %
b1010 %
0C
1D
1f
0Y
1V
1N
1K
1H
1E
0g
0q
1m
1e
1u
1w
0o
0r
0x
0l
08
09
0=
0<
0:
0;
1>
1h
1g
0y
1.
0+
0*
0,
0-
0)
0(
0z
06
1j
0h
0&
0j
0{
07
0'
1{
17
1'
#671875
b1011 %
1C
1Y
1q
0m
0e
0>
0g
0.
1h
1j
0{
07
0'
#687500
b1111 %
b1101 %
b1100 %
0C
0D
1P
0f
0Y
0V
0N
0K
0H
0E
1g
0q
1m
1e
0u
0h
0w
0j
1o
1r
1x
1{
1l
18
17
19
1=
1<
1:
1;
1>
1t
1y
1.
1+
1*
1,
1-
1)
1'
1(
1z
16
1&
#703125
b1101 %
1C
1Y
1q
0m
0e
0>
0t
0.
#718750
b1111 %
b1110 %
0C
1D
1f
0Y
1V
1N
1K
1H
1E
0g
0q
1m
1e
1u
1w
0o
0r
0x
0l
08
09
0=
0<
0:
0;
1>
1h
1g
0y
1.
0+
0*
0,
0-
0)
0(
0z
06
1j
0h
0&
0j
0{
07
0'
1{
17
1'
#734375
b1111 %
1C
1Y
1q
0m
0e
0>
0g
0.
1h
1j
0{
07
0'
#750000
b111 %
b11 %
b1 %
b0 %
0C
0D
0P
0O
0f
0Y
0V
0N
0K
0H
0E
0a
1g
0q
1m
1e
0u
0h
0w
0j
1s
1o
1r
1x
1{
1l
18
17
19
1=
1<
0?
1:
1;
1>
1y
1.
1+
1*
0/
1,
1-
1)
1'
1(
1z
16
1&
#765625
b1 %
1C
1Y
1q
0m
0e
0>
0.
#781250
b11 %
b10 %
0C
1D
1f
0Y
1V
1N
1K
1H
1E
0g
0q
1m
1e
1u
1w
0o
0r
0x
0l
08
09
0=
0<
0:
0;
1>
1h
1g
0y
1.
0+
0*
0,
0-
0)
0(
0z
06
1j
0h
0&
0j
0{
07
0'
1{
17
1'
#796875
b11 %
1C
1Y
1q
0m
0e
0>
0g
0.
1h
1j
0{
07
0'
#812500
b111 %
b101 %
b100 %
0C
0D
1P
0f
0Y
0V
0N
0K
0H
0E
1g
0q
1m
1e
0u
0h
0w
0j
1o
1r
1x
1{
1l
18
17
19
1=
1<
1:
1;
1>
1y
1.
1+
1*
1,
1-
1)
1'
1(
1z
16
1&
#828125
b101 %
1C
1Y
1q
0m
0e
0>
0.
#843750
b111 %
b110 %
0C
1D
1f
0Y
1V
1N
1K
1H
1E
0g
0q
1m
1e
1u
1w
0o
0r
0x
0l
08
09
0=
0<
0:
0;
1>
1h
1g
0y
1.
0+
0*
0,
0-
0)
0(
0z
06
1j
0h
0&
0j
0{
07
0'
1{
17
1'
#859375
b111 %
1C
1Y
1q
0m
0e
0>
0g
0.
1h
1j
0{
07
0'
#875000
b1111 %
b1011 %
b1001 %
b1000 %
0C
0D
0P
1O
0f
0Y
0V
0N
0K
0H
0E
1a
1g
0q
1m
1e
0u
0h
0w
0j
0s
1o
1r
1x
1{
1l
18
17
19
1=
1<
1?
1:
1;
1>
1t
1y
1.
1+
1*
1/
1,
1-
1)
1'
1(
1z
16
1&
#890625
b1001 %
1C
1Y
1q
0m
0e
0>
0t
0.
#906250
b1011 %
b1010 %
0C
1D
1f
0Y
1V
1N
1K
1H
1E
0g
0q
1m
1e
1u
1w
0o
0r
0x
0l
08
09
0=
0<
0:
0;
1>
1h
1g
0y
1.
0+
0*
0,
0-
0)
0(
0z
06
1j
0h
0&
0j
0{
07
0'
1{
17
1'
#921875
b1011 %
1C
1Y
1q
0m
0e
0>
0g
0.
1h
1j
0{
07
0'
#937500
b1111 %
b1101 %
b1100 %
0C
0D
1P
0f
0Y
0V
0N
0K
0H
0E
1g
0q
1m
1e
0u
0h
0w
0j
1o
1r
1x
1{
1l
18
17
19
1=
1<
1:
1;
1>
1t
1y
1.
1+
1*
1,
1-
1)
1'
1(
1z
16
1&
#953125
b1101 %
1C
1Y
1q
0m
0e
0>
0t
0.
#968750
b1111 %
b1110 %
0C
1D
1f
0Y
1V
1N
1K
1H
1E
0g
0q
1m
1e
1u
1w
0o
0r
0x
0l
08
09
0=
0<
0:
0;
1>
1h
1g
0y
1.
0+
0*
0,
0-
0)
0(
0z
06
1j
0h
0&
0j
0{
07
0'
1{
17
1'
#984375
b1111 %
1C
1Y
1q
0m
0e
0>
0g
0.
1h
1j
0{
07
0'
