Logical_circuits/mux21/simulation/qsim/mux21a2425.msim.vcd
$comment
	File created using the following command:
		vcd file mux21a2425.msim.vcd -direction
$end
$date
	Wed Sep 04 14:39:44 2024
$end
$version
	ModelSim Version 10.5b
$end
$timescale
	1ps
$end

$scope module mux21a2425_vhd_vec_tst $end
$var wire 1 ! a $end
$var wire 1 " b $end
$var wire 1 # s $end
$var wire 1 $ y $end

$scope module i1 $end
$var wire 1 % gnd $end
$var wire 1 & vcc $end
$var wire 1 ' unknown $end
$var wire 1 ( devoe $end
$var wire 1 ) devclrn $end
$var wire 1 * devpor $end
$var wire 1 + ww_devoe $end
$var wire 1 , ww_devclrn $end
$var wire 1 - ww_devpor $end
$var wire 1 . ww_a $end
$var wire 1 / ww_b $end
$var wire 1 0 ww_s $end
$var wire 1 1 ww_y $end
$var wire 1 2 \y~output_o\ $end
$var wire 1 3 \s~input_o\ $end
$var wire 1 4 \a~input_o\ $end
$var wire 1 5 \b~input_o\ $end
$var wire 1 6 \y~0_combout\ $end
$upscope $end
$upscope $end
$enddefinitions $end
#0
$dumpvars
0!
0"
0#
0$
0%
1&
x'
1(
1)
1*
1+
1,
1-
0.
0/
00
01
02
03
04
05
06
$end
#5000
1!
1.
14
16
12
11
1$
#10000
0!
1"
0.
1/
15
04
06
02
01
0$
#15000
1!
1.
14
16
12
11
1$
#20000
0!
0"
0.
0/
05
04
06
02
01
0$
#25000
1!
1.
14
16
12
11
1$
#30000
0!
1"
0.
1/
15
04
06
02
01
0$
#35000
1!
1.
14
16
12
11
1$
#40000
0!
0"
0.
0/
05
04
06
02
01
0$
#45000
1!
1.
14
16
12
11
1$
#50000
0!
1"
0.
1/
15
04
06
02
01
0$
#55000
1!
1.
14
16
12
11
1$
#60000
0!
0"
0.
0/
05
04
06
02
01
0$
#65000
1!
1.
14
16
12
11
1$
#70000
0!
1"
0.
1/
15
04
06
02
01
0$
#75000
1!
1.
14
16
12
11
1$
#80000
0!
0"
0.
0/
05
04
06
02
01
0$
#85000
1!
1.
14
16
12
11
1$
#90000
0!
1"
0.
1/
15
04
06
02
01
0$
#95000
1!
1.
14
16
12
11
1$
#100000
0!
0"
0.
0/
05
04
06
02
01
0$
#105000
1!
1.
14
16
12
11
1$
#110000
0!
1"
0.
1/
15
04
06
02
01
0$
#115000
1!
1.
14
16
12
11
1$
#120000
0!
0"
0.
0/
05
04
06
02
01
0$
#125000
1!
1.
14
16
12
11
1$
#130000
0!
1"
0.
1/
15
04
06
02
01
0$
#135000
1!
1.
14
16
12
11
1$
#140000
0!
0"
0.
0/
05
04
06
02
01
0$
#145000
1!
1.
14
16
12
11
1$
#150000
0!
1"
0.
1/
15
04
06
02
01
0$
#155000
1!
1.
14
16
12
11
1$
#160000
0!
0"
0.
0/
05
04
06
02
01
0$
#165000
1!
1.
14
16
12
11
1$
#170000
0!
1"
0.
1/
15
04
06
02
01
0$
#175000
1!
1.
14
16
12
11
1$
#180000
0!
0"
0.
0/
05
04
06
02
01
0$
#185000
1!
1.
14
16
12
11
1$
#190000
0!
1"
0.
1/
15
04
06
02
01
0$
#195000
1!
1.
14
16
12
11
1$
#200000
0!
0"
0.
0/
05
04
06
02
01
0$
#205000
1!
1.
14
16
12
11
1$
#210000
0!
1"
0.
1/
15
04
06
02
01
0$
#215000
1!
1.
14
16
12
11
1$
#220000
0!
0"
0.
0/
05
04
06
02
01
0$
#225000
1!
1.
14
16
12
11
1$
#230000
0!
1"
0.
1/
15
04
06
02
01
0$
#235000
1!
1.
14
16
12
11
1$
#240000
0!
0"
0.
0/
05
04
06
02
01
0$
#245000
1!
1.
14
16
12
11
1$
#250000
0!
1"
0.
1/
15
04
06
02
01
0$
#255000
1!
1.
14
16
12
11
1$
#260000
0!
0"
0.
0/
05
04
06
02
01
0$
#265000
1!
1.
14
16
12
11
1$
#270000
0!
1"
0.
1/
15
04
06
02
01
0$
#275000
1!
1.
14
16
12
11
1$
#280000
0!
0"
0.
0/
05
04
06
02
01
0$
#285000
1!
1.
14
16
12
11
1$
#290000
0!
1"
0.
1/
15
04
06
02
01
0$
#295000
1!
1.
14
16
12
11
1$
#300000
0!
0"
0.
0/
05
04
06
02
01
0$
#305000
1!
1.
14
16
12
11
1$
#310000
0!
1"
0.
1/
15
04
06
02
01
0$
#315000
1!
1.
14
16
12
11
1$
#320000
0!
0"
0.
0/
05
04
06
02
01
0$
#325000
1!
1.
14
16
12
11
1$
#330000
0!
1"
0.
1/
15
04
06
02
01
0$
#335000
1!
1.
14
16
12
11
1$
#340000
0!
0"
0.
0/
05
04
06
02
01
0$
#345000
1!
1.
14
16
12
11
1$
#350000
0!
1"
0.
1/
15
04
06
02
01
0$
#355000
1!
1.
14
16
12
11
1$
#360000
0!
0"
0.
0/
05
04
06
02
01
0$
#365000
1!
1.
14
16
12
11
1$
#370000
0!
1"
0.
1/
15
04
06
02
01
0$
#375000
1!
1.
14
16
12
11
1$
#380000
0!
0"
0.
0/
05
04
06
02
01
0$
#385000
1!
1.
14
16
12
11
1$
#390000
0!
1"
0.
1/
15
04
06
02
01
0$
#395000
1!
1.
14
16
12
11
1$
#400000
0!
0"
0.
0/
05
04
06
02
01
0$
#405000
1!
1.
14
16
12
11
1$
#410000
0!
1"
0.
1/
15
04
06
02
01
0$
#415000
1!
1.
14
16
12
11
1$
#420000
0!
0"
0.
0/
05
04
06
02
01
0$
#425000
1!
1.
14
16
12
11
1$
#430000
0!
1"
0.
1/
15
04
06
02
01
0$
#435000
1!
1.
14
16
12
11
1$
#440000
0!
0"
0.
0/
05
04
06
02
01
0$
#445000
1!
1.
14
16
12
11
1$
#450000
0!
1"
0.
1/
15
04
06
02
01
0$
#455000
1!
1.
14
16
12
11
1$
#460000
0!
0"
0.
0/
05
04
06
02
01
0$
#465000
1!
1.
14
16
12
11
1$
#470000
0!
1"
0.
1/
15
04
06
02
01
0$
#475000
1!
1.
14
16
12
11
1$
#480000
0!
0"
0.
0/
05
04
06
02
01
0$
#485000
1!
1.
14
16
12
11
1$
#490000
0!
1"
0.
1/
15
04
06
02
01
0$
#495000
1!
1.
14
16
12
11
1$
#500000
0!
0"
1#
0.
0/
10
13
05
04
06
02
01
0$
#505000
1!
1.
14
#510000
0!
1"
0.
1/
15
04
16
12
11
1$
#515000
1!
1.
14
#520000
0!
0"
0.
0/
05
04
06
02
01
0$
#525000
1!
1.
14
#530000
0!
1"
0.
1/
15
04
16
12
11
1$
#535000
1!
1.
14
#540000
0!
0"
0.
0/
05
04
06
02
01
0$
#545000
1!
1.
14
#550000
0!
1"
0.
1/
15
04
16
12
11
1$
#555000
1!
1.
14
#560000
0!
0"
0.
0/
05
04
06
02
01
0$
#565000
1!
1.
14
#570000
0!
1"
0.
1/
15
04
16
12
11
1$
#575000
1!
1.
14
#580000
0!
0"
0.
0/
05
04
06
02
01
0$
#585000
1!
1.
14
#590000
0!
1"
0.
1/
15
04
16
12
11
1$
#595000
1!
1.
14
#600000
0!
0"
0.
0/
05
04
06
02
01
0$
#605000
1!
1.
14
#610000
0!
1"
0.
1/
15
04
16
12
11
1$
#615000
1!
1.
14
#620000
0!
0"
0.
0/
05
04
06
02
01
0$
#625000
1!
1.
14
#630000
0!
1"
0.
1/
15
04
16
12
11
1$
#635000
1!
1.
14
#640000
0!
0"
0.
0/
05
04
06
02
01
0$
#645000
1!
1.
14
#650000
0!
1"
0.
1/
15
04
16
12
11
1$
#655000
1!
1.
14
#660000
0!
0"
0.
0/
05
04
06
02
01
0$
#665000
1!
1.
14
#670000
0!
1"
0.
1/
15
04
16
12
11
1$
#675000
1!
1.
14
#680000
0!
0"
0.
0/
05
04
06
02
01
0$
#685000
1!
1.
14
#690000
0!
1"
0.
1/
15
04
16
12
11
1$
#695000
1!
1.
14
#700000
0!
0"
0.
0/
05
04
06
02
01
0$
#705000
1!
1.
14
#710000
0!
1"
0.
1/
15
04
16
12
11
1$
#715000
1!
1.
14
#720000
0!
0"
0.
0/
05
04
06
02
01
0$
#725000
1!
1.
14
#730000
0!
1"
0.
1/
15
04
16
12
11
1$
#735000
1!
1.
14
#740000
0!
0"
0.
0/
05
04
06
02
01
0$
#745000
1!
1.
14
#750000
0!
1"
0.
1/
15
04
16
12
11
1$
#755000
1!
1.
14
#760000
0!
0"
0.
0/
05
04
06
02
01
0$
#765000
1!
1.
14
#770000
0!
1"
0.
1/
15
04
16
12
11
1$
#775000
1!
1.
14
#780000
0!
0"
0.
0/
05
04
06
02
01
0$
#785000
1!
1.
14
#790000
0!
1"
0.
1/
15
04
16
12
11
1$
#795000
1!
1.
14
#800000
0!
0"
0.
0/
05
04
06
02
01
0$
#805000
1!
1.
14
#810000
0!
1"
0.
1/
15
04
16
12
11
1$
#815000
1!
1.
14
#820000
0!
0"
0.
0/
05
04
06
02
01
0$
#825000
1!
1.
14
#830000
0!
1"
0.
1/
15
04
16
12
11
1$
#835000
1!
1.
14
#840000
0!
0"
0.
0/
05
04
06
02
01
0$
#845000
1!
1.
14
#850000
0!
1"
0.
1/
15
04
16
12
11
1$
#855000
1!
1.
14
#860000
0!
0"
0.
0/
05
04
06
02
01
0$
#865000
1!
1.
14
#870000
0!
1"
0.
1/
15
04
16
12
11
1$
#875000
1!
1.
14
#880000
0!
0"
0.
0/
05
04
06
02
01
0$
#885000
1!
1.
14
#890000
0!
1"
0.
1/
15
04
16
12
11
1$
#895000
1!
1.
14
#900000
0!
0"
0.
0/
05
04
06
02
01
0$
#905000
1!
1.
14
#910000
0!
1"
0.
1/
15
04
16
12
11
1$
#915000
1!
1.
14
#920000
0!
0"
0.
0/
05
04
06
02
01
0$
#925000
1!
1.
14
#930000
0!
1"
0.
1/
15
04
16
12
11
1$
#935000
1!
1.
14
#940000
0!
0"
0.
0/
05
04
06
02
01
0$
#945000
1!
1.
14
#950000
0!
1"
0.
1/
15
04
16
12
11
1$
#955000
1!
1.
14
#960000
0!
0"
0.
0/
05
04
06
02
01
0$
#965000
1!
1.
14
#970000
0!
1"
0.
1/
15
04
16
12
11
1$
#975000
1!
1.
14
#980000
0!
0"
0.
0/
05
04
06
02
01
0$
#985000
1!
1.
14
#990000
0!
1"
0.
1/
15
04
16
12
11
1$
#995000
1!
1.
14
