Logical_circuits/24decoders/simulation/qsim/Block1.msim.vcd
$comment
	File created using the following command:
		vcd file Block1.msim.vcd -direction
$end
$date
	Wed Sep 11 14:04:21 2024
$end
$version
	ModelSim Version 10.5b
$end
$timescale
	1ps
$end

$scope module Block1_vlg_vec_tst $end
$var reg 1 ! A $end
$var reg 1 " B $end
$var wire 1 # F0 $end
$var wire 1 $ F1 $end
$var wire 1 % F2 $end
$var wire 1 & F5 $end

$scope module i1 $end
$var wire 1 ' gnd $end
$var wire 1 ( vcc $end
$var wire 1 ) unknown $end
$var tri1 1 * devclrn $end
$var tri1 1 + devpor $end
$var tri1 1 , devoe $end
$var wire 1 - F0~output_o $end
$var wire 1 . F1~output_o $end
$var wire 1 / F2~output_o $end
$var wire 1 0 F5~output_o $end
$var wire 1 1 A~input_o $end
$var wire 1 2 B~input_o $end
$var wire 1 3 inst~combout $end
$var wire 1 4 inst2~0_combout $end
$var wire 1 5 inst2~1_combout $end
$var wire 1 6 inst2~2_combout $end
$upscope $end
$upscope $end
$enddefinitions $end
#0
$dumpvars
0!
0"
1#
0$
0%
0&
0'
1(
x)
1*
1+
1,
1-
0.
0/
00
01
02
03
04
05
06
$end
#5000000
1"
12
13
14
1.
0-
0#
1$
#10000000
1!
0"
11
02
15
04
0.
1/
1%
0$
#15000000
1"
12
16
05
0/
10
1&
0%
#20000000
0!
0"
01
02
03
06
00
1-
1#
0&
#25000000
1"
12
13
14
1.
0-
0#
1$
#30000000
1!
0"
11
02
15
04
0.
1/
1%
0$
#35000000
1"
12
16
05
0/
10
1&
0%
#40000000
0!
0"
01
02
03
06
00
1-
1#
0&
#45000000
1"
12
13
14
1.
0-
0#
1$
#50000000
1!
0"
11
02
15
04
0.
1/
1%
0$
#55000000
1"
12
16
05
0/
10
1&
0%
#60000000
0!
0"
01
02
03
06
00
1-
1#
0&
#65000000
1"
12
13
14
1.
0-
0#
1$
#70000000
1!
0"
11
02
15
04
0.
1/
1%
0$
#75000000
1"
12
16
05
0/
10
1&
0%
#80000000
0!
0"
01
02
03
06
00
1-
1#
0&
#85000000
1"
12
13
14
1.
0-
0#
1$
#90000000
1!
0"
11
02
15
04
0.
1/
1%
0$
#95000000
1"
12
16
05
0/
10
1&
0%
