Computer_model/Timing/simulation/qsim/Timing.msim.vcd
$comment
	File created using the following command:
		vcd file Timing.msim.vcd -direction
$end
$date
	Wed Oct 23 20:38:49 2024
$end
$version
	ModelSim Version 10.5b
$end
$timescale
	1ps
$end

$scope module Timing_vlg_vec_tst $end
$var reg 1 ! CLK1 $end
$var reg 1 " RST1 $end
$var reg 1 # SO $end
$var wire 1 $ T1 $end
$var wire 1 % T2 $end
$var wire 1 & T3 $end
$var wire 1 ' T4 $end

$scope module i1 $end
$var wire 1 ( gnd $end
$var wire 1 ) vcc $end
$var wire 1 * unknown $end
$var tri1 1 + devclrn $end
$var tri1 1 , devpor $end
$var tri1 1 - devoe $end
$var wire 1 . T1~output_o $end
$var wire 1 / T4~output_o $end
$var wire 1 0 T3~output_o $end
$var wire 1 1 T2~output_o $end
$var wire 1 2 SO~input_o $end
$var wire 1 3 inst1~feeder_combout $end
$var wire 1 4 RST1~input_o $end
$var wire 1 5 RST1~inputclkctrl_outclk $end
$var wire 1 6 inst1~q $end
$var wire 1 7 inst2~feeder_combout $end
$var wire 1 8 inst2~q $end
$var wire 1 9 inst3~feeder_combout $end
$var wire 1 : inst3~q $end
$var wire 1 ; inst4~q $end
$var wire 1 < CLK1~input_o $end
$var wire 1 = inst9~combout $end
$var wire 1 > inst9~clkctrl_outclk $end
$var wire 1 ? inst6|5~0_combout $end
$var wire 1 @ inst6|5~1_combout $end
$var wire 1 A inst~q $end
$upscope $end
$upscope $end
$enddefinitions $end
#0
$dumpvars
0!
0"
0#
0$
0%
0&
0'
0(
1)
x*
1+
1,
1-
0.
0/
00
01
02
03
04
05
06
07
08
09
0:
0;
0<
0=
0>
1?
1@
0A
$end
#10000
1!
1"
1<
14
15
1=
1>
1A
1.
0?
1$
13
0@
#20000
0!
0<
0=
0>
#30000
1!
1<
1=
1>
0A
16
11
0.
1?
0$
1%
03
17
#40000
0!
0<
0=
0>
#50000
1!
1<
1=
1>
18
06
01
10
0?
1&
0%
19
1@
07
0@
#60000
0!
0<
0=
0>
#70000
1!
1<
1=
1>
1:
08
00
1/
1'
0&
09
#80000
0!
0<
0=
0>
#90000
1!
1<
1=
1>
1;
0:
0/
1?
0'
1@
#100000
0!
0<
#110000
1!
1<
#120000
0!
0<
#130000
1!
1<
#140000
0!
0<
#150000
1!
1<
#160000
0!
0<
#170000
1!
1<
#180000
0!
0<
#190000
1!
1<
#200000
0!
0<
#210000
0"
1!
04
1<
05
0;
#220000
1"
0!
14
0<
15
0=
0>
#230000
1!
1<
1=
1>
1A
1.
0?
1$
13
0@
#240000
0!
0<
0=
0>
#250000
1!
1<
1=
1>
0A
16
11
0.
1?
0$
1%
03
17
#260000
0!
0<
0=
0>
#270000
1!
1<
1=
1>
18
06
01
10
0?
1&
0%
19
1@
07
0@
#280000
0!
0<
0=
0>
#290000
1!
1<
1=
1>
1:
08
00
1/
1'
0&
09
#300000
0!
0<
0=
0>
#310000
1!
1<
1=
1>
1;
0:
0/
1?
0'
1@
#320000
0!
0<
#330000
1!
1<
#340000
0!
0<
#350000
1!
1<
#360000
0!
0<
#370000
1!
1<
#380000
0!
0<
#390000
1!
1<
#400000
0!
0<
#410000
1!
1<
#420000
0!
0<
#430000
1!
1<
#440000
0!
0<
#450000
1!
1<
#460000
0!
0<
#470000
1#
1!
12
1<
#480000
0!
0<
0=
0>
#490000
1!
1<
1=
1>
0;
1A
1.
0?
1$
13
0@
#500000
0!
0<
0=
0>
#510000
1!
1<
1=
1>
0A
16
11
0.
1?
0$
1%
03
17
#520000
0!
0<
0=
0>
#530000
1!
1<
1=
1>
18
06
01
10
0?
1&
0%
19
1@
07
0@
#540000
0!
0<
0=
0>
#550000
1!
1<
1=
1>
1:
08
00
1/
1?
1'
0&
09
1@
#560000
0!
0<
0=
0>
#570000
1!
1<
1=
1>
1;
1A
0:
0/
1.
0?
1$
0'
13
0@
#580000
0!
0<
0=
0>
#590000
1!
1<
1=
1>
0;
0A
16
11
0.
1?
0$
1%
03
17
#600000
0!
0<
0=
0>
#610000
1!
1<
1=
1>
18
06
01
10
0?
1&
0%
19
1@
07
0@
#620000
0!
0<
0=
0>
#630000
1!
1<
1=
1>
1:
08
00
1/
1?
1'
0&
09
1@
#640000
0!
0<
0=
0>
#650000
1!
1<
1=
1>
1;
1A
0:
0/
1.
0?
1$
0'
13
0@
#660000
0!
0<
0=
0>
#670000
1!
1<
1=
1>
0;
0A
16
11
0.
1?
0$
1%
03
17
#680000
0!
0<
0=
0>
#690000
1!
1<
1=
1>
18
06
01
10
0?
1&
0%
19
1@
07
0@
#700000
0!
0<
0=
0>
#710000
1!
1<
1=
1>
1:
08
00
1/
1?
1'
0&
09
1@
#720000
0!
0<
0=
0>
#730000
1!
1<
1=
1>
1;
1A
0:
0/
1.
0?
1$
0'
13
0@
#740000
0!
0<
0=
0>
#750000
1!
1<
1=
1>
0;
0A
16
11
0.
1?
0$
1%
03
17
#760000
0!
0<
0=
0>
#770000
1!
1<
1=
1>
18
06
01
10
0?
1&
0%
19
1@
07
0@
#780000
0!
0<
0=
0>
#790000
1!
1<
1=
1>
1:
08
00
1/
1?
1'
0&
09
1@
#800000
0!
0<
0=
0>
#810000
1!
1<
1=
1>
1;
1A
0:
0/
1.
0?
1$
0'
13
0@
#820000
0!
0<
0=
0>
#830000
1!
1<
1=
1>
0;
0A
16
11
0.
1?
0$
1%
03
17
#840000
0!
0<
0=
0>
#850000
1!
1<
1=
1>
18
06
01
10
0?
1&
0%
19
1@
07
0@
#860000
0!
0<
0=
0>
#870000
1!
1<
1=
1>
1:
08
00
1/
1?
1'
0&
09
1@
#880000
0!
0<
0=
0>
#890000
1!
1<
1=
1>
1;
1A
0:
0/
1.
0?
1$
0'
13
0@
#900000
0!
0<
0=
0>
#910000
1!
1<
1=
1>
0;
0A
16
11
0.
1?
0$
1%
03
17
#920000
0!
0<
0=
0>
#930000
1!
1<
1=
1>
18
06
01
10
0?
1&
0%
19
1@
07
0@
#940000
0!
0<
0=
0>
#950000
1!
1<
1=
1>
1:
08
00
1/
1?
1'
0&
09
1@
#960000
0!
0<
0=
0>
#970000
1!
1<
1=
1>
1;
1A
0:
0/
1.
0?
1$
0'
13
0@
#980000
0!
0<
0=
0>
#990000
1!
1<
1=
1>
0;
0A
16
11
0.
1?
0$
1%
03
17
